<svg xmlns="http://www.w3.org/2000/svg" viewBox="0 0 24 24" width="24px" height="24px" fill="#eeeeee">
    <rect fill="none" height="24" width="24"/>
    <path d="M19,3H5C3.9,3,3,3.9,3,5v14c0,1.1,0.9,2,2,2h14c1.1,0,2-0.9,2-2V5C21,3.9,20.1,3,19,3z M9.5,13v-1h1v1c0,0.55-0.45,1-1,1h-1 c-0.55,0-1-0.45-1-1v-2c0-0.55,0.45-1,1-1h1c0.55,0,1,0.45,1,1h-2v2H9.5z M12.5,14h-1v-4h1V14z M16.5,11h-2v0.5H16v1h-1.5V14h-1v-4 h3V11z"/>
</svg>